0 0 0.5625
0 0 0.625
0 0 0.6875
0 0 0.75
0 0 0.8125
0 0 0.875
0 0 0.9375
0 0 1
0 0.0625 1
0 0.125 1
0 0.1875 1
0 0.25 1
0 0.3125 1
0 0.375 1
0 0.4375 1
0 0.5 1
0 0.5625 1
0 0.625 1
0 0.6875 1
0 0.75 1
0 0.8125 1
0 0.875 1
0 0.9375 1
0 1 1
0.0625 1 1
0.125 1 0.9375
0.1875 1 0.875
0.25 1 0.8125
0.3125 1 0.75
0.375 1 0.6875
0.4375 1 0.625
0.5 1 0.5625
0.5625 1 0.5
0.625 1 0.4375
0.6875 1 0.375
0.75 1 0.3125
0.8125 1 0.25
0.875 1 0.1875
0.9375 1 0.125
1 1 0.0625
1 1 0
1 0.9375 0
1 0.875 0
1 0.8125 0
1 0.75 0
1 0.6875 0
1 0.625 0
1 0.5625 0
1 0.5 0
1 0.4375 0
1 0.375 0
1 0.3125 0
1 0.25 0
1 0.1875 0
1 0.125 0
1 0.0625 0
1 0 0
0.9375 0 0
0.875 0 0
0.8125 0 0
0.75 0 0
0.6875 0 0
0.625 0 0
0.5625 0 0
0.00 0.00 0.01
0.01 0.01 0.02
0.03 0.03 0.04
0.04 0.04 0.06
0.06 0.06 0.08
0.07 0.07 0.10
0.08 0.08 0.12
0.10 0.10 0.14
0.11 0.11 0.16
0.12 0.12 0.18
0.14 0.14 0.20
0.15 0.15 0.22
0.17 0.17 0.23
0.18 0.18 0.25
0.19 0.19 0.27
0.21 0.21 0.29
0.22 0.22 0.31
0.24 0.24 0.33
0.25 0.25 0.35
0.26 0.26 0.37
0.28 0.28 0.39
0.29 0.29 0.41
0.31 0.31 0.43
0.32 0.32 0.44
0.33 0.34 0.46
0.35 0.36 0.47
0.36 0.38 0.49
0.38 0.40 0.50
0.39 0.41 0.51
0.40 0.43 0.53
0.42 0.45 0.54
0.43 0.47 0.56
0.44 0.49 0.57
0.46 0.51 0.58
0.47 0.53 0.60
0.49 0.55 0.61
0.50 0.57 0.62
0.51 0.59 0.64
0.53 0.61 0.65
0.54 0.62 0.67
0.56 0.64 0.68
0.57 0.66 0.69
0.58 0.68 0.71
0.60 0.70 0.72
0.61 0.72 0.74
0.62 0.74 0.75
0.64 0.76 0.76
0.65 0.78 0.78
0.67 0.79 0.79
0.70 0.81 0.81
0.72 0.82 0.82
0.74 0.83 0.83
0.76 0.85 0.85
0.78 0.86 0.86
0.80 0.88 0.88
0.83 0.89 0.89
0.85 0.90 0.90
0.87 0.92 0.92
0.89 0.93 0.93
0.91 0.94 0.94
0.93 0.96 0.96
0.96 0.97 0.97
0.98 0.99 0.99
1.00 1.00 1.00
0.00 0.00 0.00
0.02 0.01 0.01
0.04 0.02 0.02
0.06 0.04 0.02
0.08 0.05 0.03
0.10 0.06 0.04
0.12 0.07 0.05
0.14 0.09 0.06
0.16 0.10 0.06
0.18 0.11 0.07
0.20 0.12 0.08
0.22 0.14 0.09
0.24 0.15 0.09
0.26 0.16 0.10
0.28 0.17 0.11
0.30 0.19 0.12
0.32 0.20 0.13
0.34 0.21 0.13
0.36 0.22 0.14
0.38 0.24 0.15
0.40 0.25 0.16
0.42 0.26 0.17
0.44 0.27 0.17
0.46 0.29 0.18
0.48 0.30 0.19
0.50 0.31 0.20
0.52 0.32 0.21
0.54 0.33 0.21
0.56 0.35 0.22
0.58 0.36 0.23
0.60 0.37 0.24
0.62 0.38 0.24
0.63 0.40 0.25
0.65 0.41 0.26
0.67 0.42 0.27
0.69 0.43 0.28
0.71 0.45 0.28
0.73 0.46 0.29
0.75 0.47 0.30
0.77 0.48 0.31
0.79 0.50 0.32
0.81 0.51 0.32
0.83 0.52 0.33
0.85 0.53 0.34
0.87 0.55 0.35
0.89 0.56 0.36
0.91 0.57 0.36
0.93 0.58 0.37
0.95 0.60 0.38
0.97 0.61 0.39
0.99 0.62 0.39
1.00 0.63 0.40
1.00 0.64 0.41
1.00 0.66 0.42
1.00 0.67 0.43
1.00 0.68 0.43
1.00 0.69 0.44
1.00 0.71 0.45
1.00 0.72 0.46
1.00 0.73 0.47
1.00 0.74 0.47
1.00 0.76 0.48
1.00 0.77 0.49
1.00 0.78 0.50
1.00 1.00 0.00
1.00 0.98 0.00
1.00 0.97 0.00
1.00 0.95 0.00
1.00 0.94 0.00
1.00 0.92 0.00
1.00 0.90 0.00
1.00 0.89 0.00
1.00 0.87 0.00
1.00 0.86 0.00
1.00 0.84 0.00
1.00 0.83 0.00
1.00 0.81 0.00
1.00 0.79 0.00
1.00 0.78 0.00
1.00 0.76 0.00
1.00 0.75 0.00
1.00 0.73 0.00
1.00 0.71 0.00
1.00 0.70 0.00
1.00 0.68 0.00
1.00 0.67 0.00
1.00 0.65 0.00
1.00 0.63 0.00
1.00 0.62 0.00
1.00 0.60 0.00
1.00 0.59 0.00
1.00 0.57 0.00
1.00 0.56 0.00
1.00 0.54 0.00
1.00 0.52 0.00
1.00 0.51 0.00
1.00 0.49 0.00
1.00 0.48 0.00
1.00 0.46 0.00
1.00 0.44 0.00
1.00 0.43 0.00
1.00 0.41 0.00
1.00 0.40 0.00
1.00 0.38 0.00
1.00 0.37 0.00
1.00 0.35 0.00
1.00 0.33 0.00
1.00 0.32 0.00
1.00 0.30 0.00
1.00 0.29 0.00
1.00 0.27 0.00
1.00 0.25 0.00
1.00 0.24 0.00
1.00 0.22 0.00
1.00 0.21 0.00
1.00 0.19 0.00
1.00 0.17 0.00
1.00 0.16 0.00
1.00 0.14 0.00
1.00 0.13 0.00
1.00 0.11 0.00
1.00 0.10 0.00
1.00 0.08 0.00
1.00 0.06 0.00
1.00 0.05 0.00
1.00 0.03 0.00
1.00 0.02 0.00
1.00 0.00 0.00
