1.00 0.00 0.00
1.00 0.02 0.00
1.00 0.03 0.00
1.00 0.05 0.00
1.00 0.06 0.00
1.00 0.08 0.00
1.00 0.10 0.00
1.00 0.11 0.00
1.00 0.13 0.00
1.00 0.14 0.00
1.00 0.16 0.00
1.00 0.17 0.00
1.00 0.19 0.00
1.00 0.21 0.00
1.00 0.22 0.00
1.00 0.24 0.00
1.00 0.25 0.00
1.00 0.27 0.00
1.00 0.29 0.00
1.00 0.30 0.00
1.00 0.32 0.00
1.00 0.33 0.00
1.00 0.35 0.00
1.00 0.37 0.00
1.00 0.38 0.00
1.00 0.40 0.00
1.00 0.41 0.00
1.00 0.43 0.00
1.00 0.44 0.00
1.00 0.46 0.00
1.00 0.48 0.00
1.00 0.49 0.00
1.00 0.51 0.00
1.00 0.52 0.00
1.00 0.54 0.00
1.00 0.56 0.00
1.00 0.57 0.00
1.00 0.59 0.00
1.00 0.60 0.00
1.00 0.62 0.00
1.00 0.63 0.00
1.00 0.65 0.00
1.00 0.67 0.00
1.00 0.68 0.00
1.00 0.70 0.00
1.00 0.71 0.00
1.00 0.73 0.00
1.00 0.75 0.00
1.00 0.76 0.00
1.00 0.78 0.00
1.00 0.79 0.00
1.00 0.81 0.00
1.00 0.83 0.00
1.00 0.84 0.00
1.00 0.86 0.00
1.00 0.87 0.00
1.00 0.89 0.00
1.00 0.90 0.00
1.00 0.92 0.00
1.00 0.94 0.00
1.00 0.95 0.00
1.00 0.97 0.00
1.00 0.98 0.00
1.00 1.00 0.00
