include "S1R.inc"
include "hokuyo.inc"
include "map.inc"

# set the resolution of the underlying raytrace model in meters
resolution 0.01
interval_sim 10  # milliseconds per update step
#interval_real 0 # real-time milliseconds per update step


alwayson 1
#quit_time 1200

# create a robots
S1R(
  name "r0"
#  pose [ 0.50 -9.50 0 -90 ]
  pose [ 0.75 -14.25 0 -90 ]
  color "red"

  hokuyolaser(
    color "gray"
    pose [0.04 0.00 -0.11 0]
    laser_return 0
    obstacle_return 0
#    interval_sim 100
  )

  alwayson 1
  localization "gps"
  localization_origin [ 0 0 0 0 ]
  laser_return 0
  obstacle_return 0
  gui_move 1
  gui_outline 1

)


window
(
  size [ 600 740 ] # in pixels
  scale 17.0
     # pixels per meteri
  center [ 0 0 ]
  rotate [ 0  0 ]
)

# load an environment bitmap
floorplan(
  bitmap "../scenarios/bitmaps/jh-640x719.png"
#  size [21 24 0.25]
  size [31.5 36 0.25]
  center [ 0 0 0 ]
  pose [ 0 0 0 0 ]
  name "taskmap"
  gui_move 0
)


