3.37:-11.34:87.5;3.57:-11.29:90.9;3.83:-11.33:92.3;3.98:-11.26:90.4;4.16:-11.33:90.6;4.41:-11.28:88.7;4.64:-11.3:90.0;4.8:-11.35:90.6;5.03:-11.33:87.2;5.16:-11.34:88.0
3.44:-11.33:87.2;3.58:-11.26:91.5;3.83:-11.35:88.6;4.0:-11.27:88.7;4.19:-11.3:89.6;4.41:-11.32:90.8;4.56:-11.27:92.3;4.81:-11.28:90.2;4.95:-11.27:89.1;5.22:-11.26:89.3
3.36:-11.29:90.8;3.61:-11.27:89.7;3.78:-11.32:89.3;3.96:-11.34:92.6;4.19:-11.27:90.3;4.41:-11.3:87.9;4.55:-11.31:87.7;4.76:-11.31:88.4;5.0:-11.3:87.0;5.16:-11.34:90.2
3.36:-11.34:88.9;3.57:-11.27:89.6;3.78:-11.27:91.9;3.97:-11.35:89.8;4.15:-11.26:88.4;4.41:-11.33:91.1;4.55:-11.3:91.8;4.75:-11.3:87.9;5.04:-11.33:88.7;5.23:-11.31:89.4
3.39:-11.33:87.6;3.64:-11.28:89.0;3.77:-11.32:89.7;3.98:-11.33:88.1;4.15:-11.32:91.1;4.44:-11.27:88.3;4.64:-11.32:88.2;4.75:-11.29:91.4;4.97:-11.3:88.1;5.17:-11.26:88.7
3.42:-11.34:89.2;3.63:-11.31:92.1;3.78:-11.3:88.9;4.04:-11.26:89.8;4.16:-11.26:87.3;4.39:-11.35:91.8;4.6:-11.32:90.0;4.75:-11.31:90.2;5.04:-11.35:87.6;5.21:-11.31:90.1
3.41:-11.34:92.5;3.56:-11.32:87.4;3.83:-11.27:92.4;4.03:-11.3:91.4;4.16:-11.26:91.3;4.39:-11.33:90.7;4.58:-11.35:89.7;4.79:-11.27:89.6;5.0:-11.32:92.5;5.2:-11.29:87.1
3.37:-11.26:91.1;3.62:-11.29:92.6;3.78:-11.35:89.7;3.96:-11.27:88.6;4.15:-11.33:91.1;4.42:-11.3:91.6;4.56:-11.27:87.3;4.83:-11.3:89.4;5.02:-11.27:88.8;5.19:-11.34:88.6
3.41:-11.3:92.2;3.55:-11.29:88.0;3.75:-11.35:87.2;4.02:-11.32:91.6;4.17:-11.33:89.3;4.41:-11.35:89.4;4.55:-11.33:89.1;4.81:-11.34:92.7;4.99:-11.34:87.6;5.19:-11.33:87.7
3.4:-11.35:92.8;3.64:-11.27:87.2;3.75:-11.28:92.6;4.04:-11.34:87.7;4.21:-11.31:90.1;4.36:-11.28:92.2;4.59:-11.28:92.1;4.77:-11.32:89.1;4.99:-11.32:90.9;5.21:-11.29:87.1
3.42:-11.27:87.0;3.56:-11.33:91.8;3.84:-11.26:87.5;4.04:-11.3:92.7;4.18:-11.3:92.6;4.43:-11.3:92.9;4.56:-11.33:88.0;4.81:-11.29:88.5;5.02:-11.26:92.5;5.16:-11.31:89.5
3.44:-11.32:90.7;3.61:-11.26:91.7;3.77:-11.27:87.1;3.99:-11.33:92.6;4.19:-11.29:91.0;4.44:-11.28:88.8;4.6:-11.26:88.4;4.8:-11.26:90.5;5.04:-11.32:87.9;5.18:-11.27:92.8
3.44:-11.35:90.6;3.63:-11.33:88.5;3.84:-11.35:88.6;3.97:-11.35:89.3;4.15:-11.3:87.8;4.42:-11.34:92.0;4.6:-11.33:87.1;4.75:-11.27:89.5;4.98:-11.27:92.9;5.18:-11.32:91.0
3.41:-11.33:88.7;3.58:-11.31:89.9;3.79:-11.31:91.1;3.96:-11.31:87.6;4.17:-11.27:92.5;4.44:-11.34:92.0;4.64:-11.3:92.1;4.83:-11.27:89.2;5.03:-11.26:91.4;5.17:-11.27:91.7
3.42:-11.28:92.8;3.58:-11.31:87.0;3.84:-11.26:87.3;4.0:-11.29:89.4;4.18:-11.29:88.1;4.41:-11.34:87.6;4.63:-11.27:88.0;4.77:-11.26:87.3;5.04:-11.32:91.7;5.18:-11.3:90.1
3.37:-11.29:87.0;3.56:-11.28:88.5;3.81:-11.27:90.8;4.02:-11.32:89.4;4.15:-11.28:91.7;4.35:-11.32:91.0;4.57:-11.27:89.4;4.76:-11.27:90.4;4.96:-11.28:91.1;5.15:-11.32:90.4
3.43:-11.27:92.9;3.61:-11.28:91.4;3.76:-11.29:92.4;4.04:-11.26:92.9;4.23:-11.35:90.5;4.41:-11.28:87.5;4.55:-11.35:88.8;4.81:-11.29:90.4;4.96:-11.3:87.7;5.23:-11.33:88.7
3.42:-11.3:92.0;3.58:-11.3:92.9;3.84:-11.26:88.8;3.95:-11.29:88.7;4.19:-11.34:87.8;4.4:-11.26:88.7;4.6:-11.33:92.9;4.78:-11.31:87.4;5.02:-11.31:87.9;5.18:-11.31:87.6
3.35:-11.3:91.2;3.56:-11.34:90.1;3.78:-11.33:92.9;3.95:-11.32:91.5;4.15:-11.33:92.1;4.39:-11.34:90.6;4.56:-11.35:91.3;4.82:-11.27:87.2;4.95:-11.33:89.5;5.17:-11.28:90.2
3.35:-11.3:92.0;3.62:-11.35:90.8;3.8:-11.26:88.5;3.98:-11.33:92.7;4.21:-11.27:91.6;4.37:-11.33:90.2;4.64:-11.3:91.7;4.78:-11.3:90.9;4.98:-11.35:90.6;5.19:-11.31:87.7
3.43:-11.28:88.1;3.63:-11.32:88.4;3.78:-11.31:91.4;4.03:-11.28:89.9;4.21:-11.35:90.6;4.44:-11.34:87.8;4.6:-11.3:89.7;4.77:-11.34:92.7;5.03:-11.34:91.5;5.21:-11.28:91.0
3.4:-11.3:88.6;3.62:-11.3:90.1;3.81:-11.28:92.4;4.03:-11.34:89.3;4.19:-11.31:89.8;4.36:-11.32:87.5;4.61:-11.3:88.6;4.82:-11.3:91.8;5.03:-11.26:89.5;5.17:-11.26:92.1
3.38:-11.3:92.4;3.62:-11.26:89.3;3.81:-11.32:88.4;4.03:-11.29:87.8;4.22:-11.32:87.5;4.4:-11.3:89.9;4.63:-11.27:90.3;4.84:-11.34:90.4;4.97:-11.28:88.8;5.16:-11.26:88.2
3.41:-11.31:89.5;3.61:-11.33:87.8;3.82:-11.31:87.9;3.99:-11.33:90.8;4.2:-11.29:92.2;4.44:-11.31:91.0;4.6:-11.33:92.5;4.76:-11.27:88.8;4.98:-11.3:88.3;5.21:-11.29:92.5
3.35:-11.31:92.7;3.64:-11.34:92.5;3.75:-11.31:90.4;3.95:-11.27:88.4;4.19:-11.27:92.4;4.44:-11.27:92.0;4.55:-11.34:91.9;4.75:-11.34:88.4;5.0:-11.3:87.2;5.2:-11.27:90.9
3.36:-11.31:92.7;3.64:-11.29:89.4;3.77:-11.28:89.7;3.96:-11.32:88.3;4.22:-11.33:92.8;4.4:-11.29:90.2;4.63:-11.34:92.8;4.81:-11.31:91.4;4.97:-11.33:90.4;5.17:-11.28:90.6
3.35:-11.35:88.4;3.58:-11.28:90.1;3.79:-11.29:87.6;4.01:-11.33:87.3;4.18:-11.34:89.7;4.39:-11.33:87.8;4.64:-11.29:92.8;4.76:-11.3:88.7;4.95:-11.26:87.2;5.15:-11.35:90.5
3.36:-11.32:90.8;3.57:-11.29:90.0;3.8:-11.3:92.3;4.01:-11.34:87.5;4.15:-11.26:89.5;4.38:-11.31:91.8;4.59:-11.31:90.9;4.81:-11.27:88.0;5.04:-11.31:91.3;5.15:-11.32:90.3
3.35:-11.26:92.8;3.58:-11.33:92.8;3.78:-11.31:89.9;3.95:-11.31:89.4;4.2:-11.31:92.2;4.42:-11.32:91.1;4.59:-11.35:90.7;4.76:-11.27:87.3;4.95:-11.31:88.5;5.16:-11.35:90.5
3.36:-11.3:90.7;3.6:-11.28:90.6;3.76:-11.34:89.6;4.01:-11.35:91.5;4.18:-11.26:88.0;4.36:-11.35:92.8;4.62:-11.33:91.5;4.82:-11.26:89.5;5.0:-11.28:91.3;5.22:-11.29:91.2
3.39:-11.35:88.6;3.56:-11.29:88.2;3.83:-11.26:88.8;3.95:-11.32:89.6;4.23:-11.27:88.8;4.35:-11.29:87.7;4.56:-11.28:89.2;4.82:-11.35:92.8;4.96:-11.26:90.7;5.22:-11.26:88.5
3.43:-11.35:87.6;3.56:-11.31:88.1;3.82:-11.33:89.0;4.03:-11.27:87.9;4.21:-11.33:88.4;4.35:-11.35:92.8;4.6:-11.33:90.3;4.8:-11.34:87.3;5.04:-11.26:89.6;5.21:-11.29:87.0
3.35:-11.33:92.4;3.62:-11.31:92.4;3.76:-11.33:90.3;3.98:-11.3:90.0;4.18:-11.35:92.8;4.44:-11.3:87.8;4.63:-11.33:89.9;4.75:-11.28:89.4;5.01:-11.32:88.9;5.19:-11.3:91.1
3.42:-11.27:88.5;3.64:-11.3:92.8;3.81:-11.29:88.7;4.03:-11.28:89.1;4.24:-11.27:90.0;4.42:-11.27:90.5;4.57:-11.29:92.1;4.83:-11.34:92.2;5.04:-11.28:89.5;5.2:-11.3:90.5
3.4:-11.27:91.6;3.56:-11.26:91.4;3.83:-11.26:90.9;3.97:-11.34:88.9;4.2:-11.31:89.4;4.35:-11.27:89.3;4.58:-11.28:87.7;4.75:-11.31:87.4;4.97:-11.33:88.5;5.18:-11.34:90.5
3.41:-11.26:90.2;3.61:-11.34:89.8;3.84:-11.32:92.1;4.02:-11.35:91.9;4.22:-11.31:91.7;4.39:-11.31:91.1;4.55:-11.31:89.7;4.84:-11.3:87.5;4.98:-11.29:92.8;5.18:-11.29:87.0
3.41:-11.35:88.8;3.62:-11.35:88.6;3.83:-11.29:92.5;3.97:-11.33:90.9;4.18:-11.26:90.0;4.44:-11.27:92.9;4.58:-11.34:88.3;4.82:-11.33:89.0;4.99:-11.34:87.1;5.21:-11.33:91.0
3.43:-11.28:90.3;3.55:-11.29:91.4;3.83:-11.26:87.8;4.02:-11.27:89.2;4.18:-11.35:89.7;4.36:-11.29:89.6;4.59:-11.3:91.1;4.78:-11.3:92.5;5.0:-11.26:89.8;5.2:-11.28:91.5
3.36:-11.35:90.7;3.61:-11.3:92.8;3.75:-11.28:91.2;4.01:-11.32:91.7;4.16:-11.32:90.1;4.44:-11.28:88.8;4.58:-11.26:88.1;4.76:-11.26:90.4;4.96:-11.3:92.8;5.23:-11.27:87.8
3.35:-11.34:88.0;3.63:-11.35:92.6;3.84:-11.3:89.1;4.01:-11.35:89.7;4.22:-11.32:92.9;4.41:-11.3:90.8;4.6:-11.33:92.0;4.84:-11.27:91.0;5.0:-11.32:90.6;5.24:-11.32:90.7
3.38:-11.27:91.6;3.61:-11.3:91.9;3.84:-11.35:91.9;4.0:-11.3:92.8;4.16:-11.34:87.3;4.4:-11.3:90.2;4.61:-11.33:90.9;4.83:-11.26:91.9;4.95:-11.28:88.4;5.24:-11.29:87.2
3.44:-11.35:92.7;3.59:-11.35:91.7;3.84:-11.28:91.3;3.95:-11.33:92.8;4.18:-11.35:89.4;4.36:-11.32:90.8;4.62:-11.29:89.8;4.8:-11.29:89.7;5.04:-11.29:91.2;5.21:-11.32:90.3
3.36:-11.26:87.2;3.63:-11.28:90.1;3.76:-11.32:87.8;3.99:-11.32:90.2;4.15:-11.29:87.6;4.39:-11.26:92.5;4.59:-11.32:90.7;4.77:-11.29:87.4;4.95:-11.27:92.7;5.19:-11.34:92.7
3.4:-11.35:89.9;3.61:-11.33:92.1;3.82:-11.27:91.4;3.98:-11.26:87.9;4.18:-11.33:92.1;4.37:-11.29:91.0;4.61:-11.27:87.2;4.79:-11.34:87.7;4.99:-11.32:90.3;5.21:-11.34:90.4
3.43:-11.3:89.3;3.63:-11.35:90.2;3.84:-11.32:88.3;4.04:-11.34:89.2;4.15:-11.31:90.0;4.42:-11.26:90.3;4.61:-11.26:92.2;4.75:-11.33:91.3;4.96:-11.35:87.3;5.15:-11.32:87.4
3.39:-11.28:90.5;3.59:-11.34:91.2;3.84:-11.3:89.3;4.04:-11.26:92.1;4.16:-11.28:87.2;4.39:-11.3:90.3;4.6:-11.34:87.5;4.79:-11.26:88.0;4.98:-11.33:88.1;5.23:-11.3:90.7
3.44:-11.35:92.5;3.62:-11.34:89.0;3.77:-11.31:88.7;3.99:-11.29:89.3;4.21:-11.32:90.1;4.38:-11.26:88.1;4.55:-11.26:87.1;4.79:-11.32:87.0;5.04:-11.32:89.2;5.18:-11.34:89.7
3.38:-11.29:92.8;3.61:-11.34:90.0;3.78:-11.27:92.7;3.95:-11.26:90.0;4.18:-11.27:90.8;4.35:-11.33:91.6;4.59:-11.27:91.5;4.81:-11.26:92.5;5.0:-11.29:89.8;5.2:-11.33:91.9
3.42:-11.28:90.5;3.61:-11.28:87.3;3.81:-11.35:92.4;3.97:-11.33:92.1;4.23:-11.35:92.5;4.39:-11.34:88.6;4.63:-11.31:89.7;4.8:-11.26:92.8;4.98:-11.34:91.8;5.23:-11.31:91.0
3.42:-11.33:91.1;3.6:-11.26:91.0;3.79:-11.28:89.4;4.02:-11.3:88.6;4.2:-11.3:92.2;4.35:-11.27:92.3;4.58:-11.26:90.1;4.83:-11.27:91.7;5.04:-11.26:87.3;5.24:-11.3:88.4
