-3.78:-18.69:92.8;-3.65:-18.69:89.8;-3.39:-18.74:87.7;-3.24:-18.75:88.7;-2.98:-18.71:90.0;-2.78:-18.69:89.4;-2.58:-18.75:92.6;-2.45:-18.69:89.4;-2.25:-18.75:89.8;-1.96:-18.75:89.7
-3.85:-18.67:88.3;-3.58:-18.67:88.5;-3.4:-18.68:91.2;-3.25:-18.7:88.7;-2.97:-18.68:87.9;-2.84:-18.69:89.7;-2.65:-18.69:88.6;-2.42:-18.75:90.8;-2.22:-18.7:87.7;-1.96:-18.75:91.7
-3.77:-18.74:89.6;-3.65:-18.73:91.5;-3.41:-18.75:89.8;-3.22:-18.71:92.9;-2.97:-18.68:88.6;-2.76:-18.71:89.8;-2.59:-18.67:91.6;-2.43:-18.68:90.5;-2.25:-18.68:91.4;-1.99:-18.67:87.2
-3.79:-18.69:88.9;-3.6:-18.73:87.3;-3.37:-18.67:91.4;-3.23:-18.7:92.2;-2.98:-18.73:88.9;-2.79:-18.67:91.1;-2.56:-18.74:90.2;-2.45:-18.73:89.6;-2.18:-18.72:91.5;-1.99:-18.67:87.6
-3.85:-18.7:89.2;-3.61:-18.69:87.9;-3.42:-18.67:91.3;-3.21:-18.75:92.9;-2.96:-18.69:87.4;-2.79:-18.72:88.9;-2.65:-18.74:87.8;-2.38:-18.68:88.0;-2.25:-18.68:89.3;-1.99:-18.67:91.7
-3.77:-18.73:89.2;-3.6:-18.7:91.1;-3.39:-18.69:87.7;-3.24:-18.67:88.3;-2.96:-18.72:90.9;-2.8:-18.74:87.3;-2.6:-18.73:88.1;-2.43:-18.67:88.3;-2.19:-18.75:92.6;-1.97:-18.7:92.1
-3.78:-18.72:90.8;-3.64:-18.68:92.5;-3.44:-18.75:91.9;-3.22:-18.74:92.2;-2.98:-18.68:88.2;-2.76:-18.67:89.4;-2.57:-18.7:90.7;-2.4:-18.72:87.8;-2.2:-18.74:89.2;-1.99:-18.73:92.9
-3.82:-18.71:88.8;-3.58:-18.72:89.8;-3.37:-18.66:89.8;-3.17:-18.71:87.0;-3.03:-18.75:87.5;-2.81:-18.67:88.4;-2.63:-18.69:92.3;-2.39:-18.67:89.4;-2.2:-18.72:88.6;-2.04:-18.75:90.8
-3.84:-18.75:92.4;-3.62:-18.75:91.5;-3.42:-18.68:87.3;-3.17:-18.72:90.2;-3.02:-18.66:89.9;-2.84:-18.71:89.9;-2.64:-18.67:88.3;-2.44:-18.75:88.1;-2.22:-18.75:91.4;-2.05:-18.68:88.8
-3.83:-18.67:91.5;-3.64:-18.74:92.9;-3.4:-18.7:90.2;-3.18:-18.73:90.8;-2.99:-18.7:91.0;-2.78:-18.75:92.1;-2.56:-18.7:91.7;-2.4:-18.72:88.2;-2.19:-18.71:89.8;-2.0:-18.71:88.9
-3.84:-18.74:90.4;-3.57:-18.71:92.0;-3.42:-18.73:90.5;-3.18:-18.66:89.4;-2.96:-18.67:89.0;-2.82:-18.67:90.6;-2.59:-18.66:89.4;-2.38:-18.7:88.2;-2.23:-18.69:91.4;-1.97:-18.75:89.9
-3.83:-18.72:91.5;-3.59:-18.68:88.2;-3.43:-18.71:88.1;-3.17:-18.75:88.0;-3.0:-18.71:91.5;-2.85:-18.67:92.5;-2.63:-18.7:92.8;-2.42:-18.67:92.3;-2.23:-18.69:90.5;-1.98:-18.71:90.4
-3.78:-18.7:89.7;-3.63:-18.68:91.3;-3.42:-18.71:91.2;-3.18:-18.73:87.3;-2.98:-18.66:90.6;-2.8:-18.73:92.5;-2.65:-18.66:87.0;-2.39:-18.73:91.2;-2.16:-18.73:89.4;-2.03:-18.66:92.9
-3.81:-18.75:90.4;-3.62:-18.71:91.6;-3.43:-18.74:91.0;-3.23:-18.72:89.2;-3.03:-18.68:89.6;-2.77:-18.71:90.0;-2.61:-18.68:88.6;-2.39:-18.73:88.2;-2.16:-18.66:87.0;-1.97:-18.67:92.4
-3.82:-18.69:87.0;-3.57:-18.71:88.3;-3.37:-18.7:89.3;-3.16:-18.68:90.5;-3.0:-18.72:87.1;-2.78:-18.71:88.0;-2.58:-18.73:87.9;-2.39:-18.68:89.4;-2.23:-18.71:92.4;-2.01:-18.72:92.2
-3.82:-18.74:90.6;-3.6:-18.68:87.1;-3.38:-18.73:87.6;-3.19:-18.66:87.5;-3.05:-18.66:87.5;-2.85:-18.66:90.5;-2.6:-18.75:90.7;-2.38:-18.67:91.2;-2.2:-18.72:92.3;-1.99:-18.75:88.9
-3.83:-18.74:90.0;-3.62:-18.75:91.6;-3.42:-18.67:88.5;-3.18:-18.71:90.6;-2.96:-18.69:91.7;-2.76:-18.66:91.4;-2.59:-18.72:91.5;-2.38:-18.66:89.5;-2.22:-18.69:88.6;-1.96:-18.75:87.2
-3.8:-18.66:91.2;-3.59:-18.73:91.6;-3.36:-18.69:91.2;-3.19:-18.69:92.9;-3.02:-18.74:88.3;-2.85:-18.75:89.0;-2.63:-18.73:88.5;-2.44:-18.66:91.1;-2.22:-18.67:89.7;-2.02:-18.74:92.6
-3.81:-18.71:91.7;-3.61:-18.74:92.8;-3.38:-18.67:87.0;-3.21:-18.7:87.0;-2.96:-18.74:92.2;-2.85:-18.71:88.7;-2.58:-18.68:89.9;-2.37:-18.73:88.1;-2.24:-18.74:90.4;-2.02:-18.71:89.8
-3.84:-18.71:92.3;-3.61:-18.73:89.1;-3.4:-18.66:87.0;-3.24:-18.67:87.5;-2.99:-18.72:92.8;-2.78:-18.75:87.7;-2.65:-18.73:92.4;-2.37:-18.73:91.3;-2.24:-18.66:91.0;-2.05:-18.67:88.8
-3.79:-18.71:88.9;-3.59:-18.73:91.3;-3.38:-18.72:89.9;-3.18:-18.67:89.4;-3.03:-18.72:91.4;-2.78:-18.66:89.9;-2.6:-18.72:87.1;-2.42:-18.66:91.4;-2.16:-18.74:88.2;-2.02:-18.7:87.2
-3.79:-18.7:89.6;-3.58:-18.74:89.6;-3.36:-18.66:87.0;-3.18:-18.73:92.8;-3.02:-18.69:87.5;-2.84:-18.67:90.1;-2.65:-18.7:92.5;-2.4:-18.73:92.4;-2.18:-18.69:90.3;-1.96:-18.69:89.0
-3.76:-18.74:91.4;-3.58:-18.73:88.7;-3.4:-18.66:89.5;-3.25:-18.74:91.0;-3.05:-18.75:90.2;-2.77:-18.67:89.5;-2.56:-18.73:88.8;-2.36:-18.66:88.2;-2.24:-18.68:92.8;-1.96:-18.74:92.3
-3.76:-18.69:92.4;-3.58:-18.68:87.2;-3.37:-18.75:87.3;-3.18:-18.68:87.5;-3.02:-18.71:87.3;-2.82:-18.66:88.0;-2.62:-18.69:92.4;-2.38:-18.72:89.4;-2.22:-18.73:90.4;-1.97:-18.69:87.7
-3.76:-18.7:91.6;-3.64:-18.71:91.7;-3.44:-18.73:91.8;-3.17:-18.7:89.9;-2.98:-18.73:88.9;-2.85:-18.73:87.1;-2.64:-18.68:87.6;-2.41:-18.66:91.4;-2.23:-18.73:91.9;-1.96:-18.74:87.1
-3.81:-18.7:88.9;-3.61:-18.66:90.4;-3.38:-18.75:91.6;-3.25:-18.72:87.6;-3.02:-18.69:92.0;-2.84:-18.7:87.3;-2.6:-18.69:91.0;-2.45:-18.7:91.9;-2.18:-18.71:92.9;-2.03:-18.66:90.4
-3.79:-18.67:91.7;-3.58:-18.66:87.2;-3.41:-18.72:88.8;-3.24:-18.69:90.2;-2.96:-18.75:89.8;-2.77:-18.73:91.7;-2.65:-18.68:88.3;-2.36:-18.72:92.3;-2.24:-18.74:90.1;-1.98:-18.71:88.0
-3.8:-18.66:88.6;-3.64:-18.72:89.0;-3.39:-18.66:90.0;-3.23:-18.75:87.8;-3.02:-18.66:89.0;-2.8:-18.68:92.4;-2.59:-18.69:87.1;-2.39:-18.7:88.6;-2.24:-18.75:91.8;-2.01:-18.68:90.8
-3.85:-18.68:89.3;-3.62:-18.7:92.9;-3.45:-18.68:90.9;-3.17:-18.73:91.1;-3.03:-18.66:89.2;-2.79:-18.72:92.5;-2.65:-18.69:89.3;-2.38:-18.72:89.9;-2.24:-18.75:92.5;-1.99:-18.71:88.0
-3.79:-18.7:87.0;-3.63:-18.73:90.9;-3.39:-18.67:92.3;-3.25:-18.67:87.4;-3.03:-18.67:87.3;-2.83:-18.72:92.4;-2.56:-18.67:88.9;-2.38:-18.72:92.9;-2.19:-18.69:89.8;-2.01:-18.69:87.4
-3.84:-18.74:89.0;-3.64:-18.74:88.6;-3.44:-18.66:92.1;-3.18:-18.72:90.4;-3.02:-18.73:87.9;-2.85:-18.67:91.2;-2.63:-18.75:89.5;-2.38:-18.7:92.5;-2.16:-18.68:87.3;-1.96:-18.72:92.7
-3.85:-18.69:89.9;-3.59:-18.75:87.0;-3.44:-18.67:92.7;-3.17:-18.7:92.7;-3.0:-18.68:88.9;-2.77:-18.7:92.1;-2.57:-18.7:91.0;-2.37:-18.75:90.2;-2.17:-18.67:92.9;-2.01:-18.67:89.0
-3.81:-18.68:88.6;-3.62:-18.75:92.1;-3.45:-18.67:89.7;-3.25:-18.73:89.8;-3.03:-18.68:88.4;-2.78:-18.7:89.1;-2.6:-18.7:90.6;-2.39:-18.73:91.4;-2.22:-18.72:92.7;-2.02:-18.74:87.5
-3.85:-18.68:89.2;-3.61:-18.66:87.8;-3.36:-18.69:92.5;-3.17:-18.71:88.9;-2.99:-18.69:90.9;-2.76:-18.67:89.3;-2.62:-18.7:90.3;-2.42:-18.69:92.2;-2.21:-18.71:89.9;-2.04:-18.7:87.8
-3.79:-18.67:87.4;-3.65:-18.67:90.8;-3.4:-18.71:87.6;-3.19:-18.69:89.6;-3.0:-18.68:91.5;-2.85:-18.66:88.5;-2.57:-18.69:91.8;-2.45:-18.75:92.4;-2.25:-18.68:91.9;-1.96:-18.69:91.9
-3.82:-18.69:88.4;-3.57:-18.72:90.3;-3.45:-18.66:92.7;-3.22:-18.73:87.0;-3.05:-18.72:92.0;-2.85:-18.66:92.0;-2.58:-18.71:88.8;-2.36:-18.72:88.4;-2.16:-18.75:89.2;-2.02:-18.66:91.8
-3.77:-18.69:91.1;-3.56:-18.68:89.6;-3.43:-18.7:91.9;-3.21:-18.71:91.5;-3.0:-18.73:91.5;-2.82:-18.66:88.5;-2.6:-18.68:91.2;-2.36:-18.75:92.0;-2.23:-18.72:88.1;-2.05:-18.67:90.0
-3.77:-18.69:88.1;-3.57:-18.7:87.5;-3.42:-18.68:89.0;-3.19:-18.75:92.6;-3.0:-18.7:88.2;-2.77:-18.74:89.7;-2.57:-18.67:89.1;-2.43:-18.69:90.4;-2.25:-18.71:89.8;-1.97:-18.67:89.4
-3.77:-18.72:91.0;-3.61:-18.66:92.6;-3.38:-18.73:91.1;-3.2:-18.69:91.9;-3.05:-18.67:87.5;-2.82:-18.66:91.1;-2.58:-18.66:88.8;-2.45:-18.75:91.7;-2.24:-18.66:91.9;-2.02:-18.72:87.2
-3.84:-18.66:92.1;-3.58:-18.71:87.6;-3.45:-18.67:92.9;-3.22:-18.69:90.6;-3.02:-18.7:91.8;-2.76:-18.69:88.3;-2.62:-18.71:88.4;-2.36:-18.68:89.6;-2.21:-18.66:88.0;-1.98:-18.69:90.3
-3.81:-18.72:89.8;-3.6:-18.72:89.0;-3.41:-18.72:91.7;-3.19:-18.73:87.0;-3.03:-18.7:90.8;-2.79:-18.69:90.8;-2.59:-18.71:90.9;-2.4:-18.74:87.1;-2.25:-18.67:90.3;-2.0:-18.72:91.9
-3.8:-18.72:91.9;-3.62:-18.67:89.1;-3.36:-18.66:87.4;-3.18:-18.66:89.6;-3.02:-18.7:88.6;-2.81:-18.75:91.0;-2.6:-18.69:87.4;-2.44:-18.75:88.1;-2.25:-18.67:92.2;-1.99:-18.74:89.6
-3.8:-18.67:88.9;-3.59:-18.74:90.4;-3.4:-18.75:90.4;-3.19:-18.73:89.8;-3.02:-18.66:87.4;-2.82:-18.74:88.2;-2.63:-18.75:89.5;-2.41:-18.75:90.6;-2.21:-18.67:88.2;-1.96:-18.68:91.9
-3.79:-18.75:90.6;-3.58:-18.73:90.5;-3.44:-18.67:91.1;-3.17:-18.72:92.4;-3.0:-18.74:92.3;-2.85:-18.7:89.3;-2.65:-18.75:89.8;-2.37:-18.75:91.2;-2.23:-18.75:89.5;-2.05:-18.74:87.1
-3.84:-18.69:88.9;-3.63:-18.72:88.6;-3.43:-18.74:87.8;-3.17:-18.66:92.9;-3.0:-18.67:87.0;-2.76:-18.7:87.9;-2.65:-18.74:91.3;-2.36:-18.69:92.8;-2.25:-18.67:88.3;-1.99:-18.68:89.1
-3.78:-18.68:89.1;-3.57:-18.66:90.1;-3.39:-18.71:87.2;-3.2:-18.66:92.2;-3.01:-18.75:87.2;-2.77:-18.68:92.7;-2.58:-18.68:91.5;-2.39:-18.66:90.5;-2.24:-18.71:90.0;-2.01:-18.75:92.5
-3.8:-18.67:91.1;-3.64:-18.74:90.9;-3.4:-18.7:91.4;-3.21:-18.72:90.6;-2.99:-18.73:88.6;-2.85:-18.69:91.8;-2.59:-18.67:92.0;-2.45:-18.75:88.3;-2.22:-18.67:87.4;-1.99:-18.66:92.1
-3.79:-18.73:91.2;-3.62:-18.75:87.5;-3.36:-18.69:88.4;-3.19:-18.66:91.4;-3.04:-18.71:87.2;-2.79:-18.68:91.0;-2.59:-18.66:88.6;-2.43:-18.66:88.7;-2.18:-18.69:90.3;-1.97:-18.68:88.4
-3.82:-18.7:87.4;-3.57:-18.69:89.1;-3.36:-18.75:87.1;-3.2:-18.67:87.8;-3.03:-18.67:89.8;-2.81:-18.7:92.6;-2.62:-18.74:89.3;-2.4:-18.7:88.9;-2.24:-18.75:90.5;-1.98:-18.73:92.1
-3.78:-18.68:87.4;-3.62:-18.67:92.2;-3.45:-18.75:88.6;-3.18:-18.74:87.8;-2.99:-18.66:89.7;-2.76:-18.74:87.6;-2.56:-18.73:92.3;-2.42:-18.68:89.9;-2.22:-18.71:91.6;-1.96:-18.66:90.3
